{
  "title": "Basic_GPS_Position",
  "outputUrl": "http://138.68.160.161:8080/output/6ZzYW3gG9msq20BzKxN1CvvWaMN",
  "inputUrl": "http://138.68.160.161:8080/input/6ZzYW3gG9msq20BzKxN1CvvWaMN",
  "manageUrl": "http://138.68.160.161:8080/streams/6ZzYW3gG9msq20BzKxN1CvvWaMN",
  "publicKey": "6ZzYW3gG9msq20BzKxN1CvvWaMN",
  "privateKey": "mdNb0Lx2WnFVw94GaPe2tOObW0n",
  "deleteKey": "Vq0wnBR9v8FzoPZL41OdcJJE6ZQ"
}
