{
  "title": "device_1",
  "outputUrl": "http://138.68.160.161:8080/output/w9NbXj4Dv8Hk1QPA331Xt1KYeoOd",
  "inputUrl": "http://138.68.160.161:8080/input/w9NbXj4Dv8Hk1QPA331Xt1KYeoOd",
  "manageUrl": "http://138.68.160.161:8080/streams/w9NbXj4Dv8Hk1QPA331Xt1KYeoOd",
  "publicKey": "w9NbXj4Dv8Hk1QPA331Xt1KYeoOd",
  "privateKey": "OaZ2pvRMAyFvPZ3XxxPpu3dKz4vO",
  "deleteKey": "oOZ8eGbE3BfwAZBOLLAbiWr6eRNn"
}