{
    "title": "Left sidebar",
    "description": [
        {
            "title": "Left 1",
            "params": [
                {
                    "title": "Param 1-1",
                    "value": "Value 1-1"
                },
                {
                    "title": "Param 1-2",
                    "value": "Value 1-2"
                }
            ]
        },
        {
            "title": "Left 2",
            "params": [
                {
                    "title": "Param 2-1",
                    "value": "Value 2-1"
                },
                {
                    "title": "Param 2-2",
                    "value": "Value 2-2"
                },
                {
                    "title": "Param 2-3",
                    "value": "Value 2-3"
                }
            ]
        },
        {
            "title": "Left 3",
            "params": [
                {
                    "title": "Param 3-1",
                    "value": "Value 3-1"
                }
            ]
        }
    ]
}