{
  "title": "master_node",
  "outputUrl": "http://138.68.160.161:8080/output/LQwBMwVbgKCOdBDdbrxxuGKQM1r",
  "inputUrl": "http://138.68.160.161:8080/input/LQwBMwVbgKCOdBDdbrxxuGKQM1r",
  "manageUrl": "http://138.68.160.161:8080/streams/LQwBMwVbgKCOdBDdbrxxuGKQM1r",
  "publicKey": "LQwBMwVbgKCOdBDdbrxxuGKQM1r",
  "privateKey": "8Va24aBgbMi3xwpxebOOfp2KXV3",
  "deleteKey": "BaWGbWwn97Ck16B1rR88tD27LnE"
}

