{
  "title": "data_stream_3",
  "outputUrl": "http://138.68.160.161:8080/output/voG1VWxLoOUpYmeOlq1VslYwGkz",
  "inputUrl": "http://138.68.160.161:8080/input/voG1VWxLoOUpYmeOlq1VslYwGkz",
  "manageUrl": "http://138.68.160.161:8080/streams/voG1VWxLoOUpYmeOlq1VslYwGkz",
  "publicKey": "voG1VWxLoOUpYmeOlq1VslYwGkz",
  "privateKey": "rZDQr3qbZ9swq5K9mzdMIvm7WVn",
  "deleteKey": "JR1l9g37R6hVX6m2JyOYTaQgd47"
}