{
  "title": "data_stream_2",
  "outputUrl": "http://138.68.160.161:8080/output/kXVLaVeye3U3mbO0P1z4cE9eLoZ",
  "inputUrl": "http://138.68.160.161:8080/input/kXVLaVeye3U3mbO0P1z4cE9eLoZ",
  "manageUrl": "http://138.68.160.161:8080/streams/kXVLaVeye3U3mbO0P1z4cE9eLoZ",
  "publicKey": "kXVLaVeye3U3mbO0P1z4cE9eLoZ",
  "privateKey": "pLrA8r959wFM5lqRVvOwfP9OdXa",
  "deleteKey": "vdXV9XnmnqCQOqd1Gk3oHDk1aJ6"
}